,Yields
LIBOR 6M,1.42711
LIBOR 12M,1.80289
Swap2,1.6198
Swap3,1.8134
Swap4,1.9558
Swap5,2.0655
Swap6,2.1541
Swap7,2.2298
Swap8,2.2911
Swap9,2.3467
Swap10,2.3965
Swap11,2.437
Swap12,2.4745
Swap13,2.5035
Swap14,2.529
Swap15,2.5495
Swap16,2.5738
Swap17,2.582
Swap18,2.6033
Swap19,2.6149
Swap20,2.6163
Swap25,2.6355
Swap30,2.6395
